[
  {
    "uuid": "4b0a3f58-65da-40fb-8f3a-7abf4c93ef42",
    "name": "BigYY",
    "level": 4,
    "bypassesPlayerLimit": false
  },
  {
    "uuid": "d5d1e00e-99e8-48d0-bb05-46351fe64b7c",
    "name": "Locurian",
    "level": 4,
    "bypassesPlayerLimit": false
  },
  {
    "uuid": "d1d52281-445a-4f72-97c0-3f3e0b07fa7a",
    "name": "Quie",
    "level": 4,
    "bypassesPlayerLimit": false
  },
  {
    "uuid": "ebe76988-2d03-4bcd-b617-514f26252400",
    "name": "AdmissivePi",
    "level": 4,
    "bypassesPlayerLimit": false
  },
  {
    "uuid": "7a17eaf3-83d3-4ccb-9f7d-b5a49e03fa63",
    "name": "Arrowskee",
    "level": 4,
    "bypassesPlayerLimit": false
  },
  {
    "uuid": "45df3f86-7775-4378-93e4-4b3e6fbf9137",
    "name": "DeltaVeeee",
    "level": 4,
    "bypassesPlayerLimit": false
  },
  {
    "uuid": "11b5766e-e0c6-40c2-a443-da555ebad4ee",
    "name": "brandonp2412",
    "level": 4,
    "bypassesPlayerLimit": false
  }
]